lab_0/lab_0.sim/sim_1/behav/xsim/simulate.log
Time resolution is 1 ps
Time=0 | sw=00000000 | led=00000001
Time=10000 | sw=00000001 | led=00000000
Time=20000 | sw=00000010 | led=00000111
Time=30000 | sw=00001100 | led=00001101
Time=40000 | sw=11110000 | led=11110001
Time=50000 | sw=00000000 | led=00000001
Time=60000 | sw=00000001 | led=00000000
Time=70000 | sw=00000010 | led=00000111
Time=80000 | sw=00000011 | led=00000110
Time=90000 | sw=00000100 | led=00000001
Time=100000 | sw=00000101 | led=00000000
Time=110000 | sw=00000110 | led=00000001
Time=120000 | sw=00000111 | led=00000000
Time=130000 | sw=00001000 | led=00000001
Time=140000 | sw=00001001 | led=00000000
Time=150000 | sw=00001010 | led=00000111
Time=160000 | sw=00001011 | led=00000110
Time=170000 | sw=00001100 | led=00001101
Time=180000 | sw=00001101 | led=00001100
Time=190000 | sw=00001110 | led=00001101
Time=200000 | sw=00001111 | led=00001100
Time=210000 | sw=00010000 | led=00010001
$finish called at time : 230 ns : File "C:/Users/JP/Documents/School/ECE524/LED-Tutorial/lab_0/lab_0.srcs/sim_1/new/lab_0_tb.v" Line 66
